…
1.  Flew to Houston (IAH or HOU)
    
    ```r
    filter(flights, dest %in% c('IAH', 'HOU')) %>% arrange(dest)
    #> # A tibble: 9,313 x 19
    #>    year month   day dep_time sched_dep_time dep_delay arr_time
    #>   <int> <int> <int>    <int>          <int>     <dbl>    <int>
    #> 1  2013     1     1     1208           1158        10     1540
    #> 2  2013     1     1     1306           1300         6     1622
    #> 3  2013     1     1     1708           1700         8     2037
    #> 4  2013     1     1     2030           2035        -5     2354
    #> 5  2013     1     2      734            700        34     1045
    #> 6  2013     1     2     1156           1158        -2     1517
    #> # ... with 9,307 more rows, and 12 more variables: sched_arr_time <int>,
    #> #   arr_delay <dbl>, carrier <chr>, flight <int>, tailnum <chr>,
    #> #   origin <chr>, dest <chr>, air_time <dbl>, distance <dbl>, hour <dbl>,
    #> #   minute <dbl>, time_hour <dttm>
    ```
…
1.  Arrived more than two hours late, but didn't leave late
    
    ```r
    filter(flights, dep_delay <= 0, arr_delay > 120)
    #> # A tibble: 29 x 19
    #>    year month   day dep_time sched_dep_time dep_delay arr_time
    #>   <int> <int> <int>    <int>          <int>     <dbl>    <int>
    #> 1  2013     1    27     1419           1420        -1     1754
    #> 2  2013    10     7     1350           1350         0     1736
    #> 3  2013    10     7     1357           1359        -2     1858
    #> 4  2013    10    16      657            700        -3     1258
    #> 5  2013    11     1      658            700        -2     1329
    #> 6  2013     3    18     1844           1847        -3       39
    #> # ... with 23 more rows, and 12 more variables: sched_arr_time <int>,
    #> #   arr_delay <dbl>, carrier <chr>, flight <int>, tailnum <chr>,
    #> #   origin <chr>, dest <chr>, air_time <dbl>, distance <dbl>, hour <dbl>,
    #> #   minute <dbl>, time_hour <dttm>
    ```

1.  Were delayed by at least an hour, but made up over 30 minutes in flight
    
    ```r
    filter(flights, dep_delay >= 60 & dep_delay - arr_delay > 30) %>% 
      arrange(dep_delay, arr_delay)
    #> # A tibble: 1,844 x 19
    #>    year month   day dep_time sched_dep_time dep_delay arr_time
    #>   <int> <int> <int>    <int>          <int>     <dbl>    <int>
    #> 1  2013     2    26     1000            900        60     1513
    #> 2  2013    12    22     1030            930        60     1534
    #> 3  2013     7    20     1725           1625        60     1838
    #> 4  2013    12    27     1929           1829        60     2205
    #> 5  2013     6    28     1105           1005        60     1228
    #> 6  2013     3    10      930            830        60     1207
    #> # ... with 1,838 more rows, and 12 more variables: sched_arr_time <int>,
    #> #   arr_delay <dbl>, carrier <chr>, flight <int>, tailnum <chr>,
    #> #   origin <chr>, dest <chr>, air_time <dbl>, distance <dbl>, hour <dbl>,
    #> #   minute <dbl>, time_hour <dttm>
    ```

1.  Departed between midnight and 6 a.m. (inclusive)
    
    ```r
    filter(flights, between(dep_time, 0, 600)) %>% arrange(dep_time)
    #> # A tibble: 9,344 x 19
    #>    year month   day dep_time sched_dep_time dep_delay arr_time
    #>   <int> <int> <int>    <int>          <int>     <dbl>    <int>
    #> 1  2013     1    13        1           2249        72      108
    #> 2  2013     1    31        1           2100       181      124
    #> 3  2013    11    13        1           2359         2      442
    #> 4  2013    12    16        1           2359         2      447
    #> 5  2013    12    20        1           2359         2      430
    #> 6  2013    12    26        1           2359         2      437
    #> # ... with 9,338 more rows, and 12 more variables: sched_arr_time <int>,
    #> #   arr_delay <dbl>, carrier <chr>, flight <int>, tailnum <chr>,
    #> #   origin <chr>, dest <chr>, air_time <dbl>, distance <dbl>, hour <dbl>,
    #> #   minute <dbl>, time_hour <dttm>
    ```
…
